{
  "Titre": "Secret Hitler",
  "Thumbnail": "https://pbs.twimg.com/profile_images/913788896038707200/wA-eysAh_400x400.jpg",
  "Couleur": "#C73718",
  "Image": "https://i.ytimg.com/vi/h9D4SEftgBs/maxresdefault.jpg",
  "Règles du jeu": "Secret Hitler est un jeu à rôles cachés confrontant les libéraux et les fascistes. Le but des libéraux est de faire passer 5 lois libérales ou de tuer Hitler, et celui des fascistes est de faire passer 6 lois fascistes ou de promouvoir Hitler chancelier.",
  "Phase d'élection": "Le président va élir un chancelier. Celui-ci ne pouvant pas être le président, ni l'ancien chancelier (ni l'ancien président, s'il y a un certain nombre de joueurs). Lorsque le chancelier est choisit par le président, le peuple vote pour ou contre l'élection de ce chancelier. S'il a une majorité de pour, le chancelier est élu et on passe à la phase législative. Sinon, le chancelier n'est pas élu et le président passe le relais à un autre. Et on recommence l'élection. Après trois échecs d'élection, le chaos s'installe et une loi passe, qu'elle soit libérale ou fasciste.\n\n",
  "Phase législative": "Pendant la phase législative, le président et le chancelier collaborent pour faire passer une loi. Le président reçoit trois lois et en fait passer deux au chancelier. Ce dernier rejettera une loi et fera passer l'autre. Et puis on recommence depuis la phase d'élection avec un nouveau président.\n\n",
  "Pouvoirs": "Si une loi fasciste passe, le président actuel reçoit un pouvoir (s'il y a peu de joueurs, il n'en reçoit qu'à partir d'un certain nombre de lois fascistes passées). Il y a cinq pouvoirs : Fidélité, Coup d'Oeil, Election Speciale, Exection, Veto.\n\n",
  "-> Fidélité": "Le président peut connaître le parti\nd'un joueur.",
  "-> Coup d'Oeil": "Le président peut connaître\nles trois prochaines lois.",
  "-> Election spéciale": "Le président désigne n'importe qui\ncomme prochain président.",
  "-> Execution": "Le président peut tuer un\njoueur.",
  "-> Veto": "Pendant les prochaines phases législatives, le chancelier peut demander au président de refuser les deux lois reçus. Si le président accepte, les lois sont rejettées, sinon, le chancelier doit en choisir une.",
  "\n\nLes lois": "Il y a 17 lois au total. 6 lois libérales et 11 lois fascistes. Elles sont mélangées aléatoirement. Quand il ne reste plus que deux cartes ou moins, toutes les lois sont de nouveau mélangées.",
  "5-6 joueurs": "- 1 Hitler\n- 1 fascistes\n- 3-4 libéraux.\nTous les fascistes savent avec qui ils sont.\nOrdre de pouvoirs :\nRien - Rien - Coup d'Oeil - Execution - Execution+Veto",
  "7-8 joueurs": "- 1 Hitler\n- 2 fascistes\n- 4-5 libéraux.\nTous les fascistes (sauf Hitler) savent avec qui ils sont et qui est Hitler.\nOrdre de pouvoirs :\nRien - Fidélité - Election spéciale - Execution - Execution+Veto",
  "9-10 joueurs": "- 1 Hitler\n- 3 fascistes\n- 5-6 libéraux.\nTous les fascistes (sauf Hitler) savent avec qui ils sont et qui est Hitler.\nOrdre de pouvoirs :\nFidélité - Fidélité - Election spéciale - Execution - Execution+Veto"
}
