{
    "PixabayKey" : "11339621-2e2aface7a9ec1b14b57e2389",
    "NewsKey" : "4731e08b74464a47b950d4fb0b716e9a",
    "TranslateKey" : "trnsl.1.1.20190127T143503Z.210d188f1eefac69.b641fb1e2f927115cb426d418572c8dd1a9a55e6"
}
