{
  "owner": true,
  "avatar": true,
  "delete": true,
  "echo": true,
  "gdocs": true,
  "help": true,
  "test": true,
  "skull": true,
  "joke": true,
  "jdr": true,
  "clean": true,
  "timer": true,
  "fox": true,
  "hentai": true,
  "lewdneko": true,
  "neko": true,
  "undefined": true,
  "pics": true,
  "xp": true,
  "news": true,
  "secret": true,
  "combat": true,
  "jets": true,
  "jeux": true,
  "regles": true,
  "linq": true,
  "setup": true,
  "disable": true,
  "enable": true,
  "reload": true,
  "restart": true,
  "Server": true,
  "User": true,
  "hide": true,
  "bully": true,
  "lucky": true
}