{
      "0" : "Pourquoi les plongeurs sautent à l'envers des bateaux?\nParce que sinon, ils tomberaient dans le bateau.",
      "1" : "C'est l'histoire d'un pingouin qui respire par les fesses.\nUn jour, il s'assoit et il meurt.",
      "2" : "Qu'est-ce qui fait toin toin?\nUn tanard.",
      "3" : "Comment appelle-t-on un chien qui n'a pas de pattes?\nOn va le chercher.",
      "4" : "C'est l'histoire d'un mec qui a 5 bites. Son slip lui va comme un gant.",
      "5" : "C'est un zoophile qui prend son élan.",
      "6" : "Qu'est-ce qui est encore mieux qu'un enfant sur un tourniquet?\nL'arrêter avec une pelle.",
      "7" : "Qu'est-ce qui est vert, qui tourne très très vite et qui devient rouge?\nUne grenouille dans un mixer.",
      "8" : "Quel bruit faisait la montre d'Adolf Hitler?\nDik-tat Dik-tat Dik-tat.",
      "9" : "Quelle est la différence entre un lapin et une bouteille en plastique?\nIls sont tous les deux en plastique, sauf le lapin.",
      "10" : "Qu'est-ce qui est vert et qui pousse dans le jardin?\nUn extraterrestre qui fait caca.",
      "11" : "Quelle est la différence entre une femme et un doberman?\nLe prix du collier.",
      "12" : "Quelle est la différence entre une autruche et une armoire à glace?\nY en a un, c'est un oiseau, et l'autre, c'est un meuble.",
      "13" : "Comment on appelle un petit fien?\nUn canif.",
      "14" : "C’est deux allemands, un italien, un juif, un arabe, le pape, trois gendarmes, une pute et un gay qui rentre dans un bar et il y a le garçon de café qui fait: \" C’est quoi ça, c’est une blague?\"",
      "15" : "C'est deux éléphants et deux girafes qui montent dans une voiture. Qui conduit?\nBen celui qui a le permis!",
      "16" : "Qu'est-ce qui est blanc et qui monte aux arbres?\nUn réfrigérateur!",
      "17" : "Donne-moi une couleur entre 0 et 10.\n- Mercredi!\n- T'es con c'est pas en Amérique!",
      "18" : "C'est quoi un chalumeau?\nC'est un dromaludaire à deux bosses",
      "19" : "C’est douze sèche-linges qui jouent au foot, puis arrive une machine à laver:\n' Hey, je peux jouer avec vous?\nLes sèche-linges se regardent puis éclatent de rire.\n– T’as déjà vu une machine à laver jouer au foot toi!?",
      "20" : "C'est l'histoire d'un aveugle qui rentre dans un bar, puis une table, puis une chaise",
      "21" : "Tu sais pourquoi les femmes sont dépensières ?\nT'as déjà vu une tirelire avec la fente vers le bas ?",
      "22" : "Je ne crois pas aux giraffes, je pense que c'est un coup monté.",
      "23" : "- Alors docteur il me reste combien de temps a vivre selon vous ?\n- Je dirais environ... 5...\n- 5 ? 5 quoi 5 mois ? 5 semaines ? 5 jours ?\n-4....3....2....1....",
      "24" : "Est ce que tu connais le dinosaure gay ?\nC'est le tripotanus.",
      "25" : "C'est l'histoire d'une fleur qui court, puis qui se plante.",
      "26" : "C'est un aveugle qui rentre dans un bar... puis dans une chaise, puis dans une table.",
      "27" : "Comment appelle-t-on un rassemblement d'aveugles ?\nLe festival de cannes.",
      "28" : "Qu'est ce qu'un oiseau migrateur ?\nC'est un oiseau qui se gratte que d'un seul côté.",
      "29" : "C'est un gars qui va voir son medecin. Son medecin lui dit:\n- Il faudrait que vous arretiez de vous masturber.\n- Et pourquoi cela ?\n- Parce que j'aimerais bien commencer à vous examiner.",
      "30" : "Sais-tu pourquoi les tyrannosaures ne tappent pas des mains ?\nParce qu'ils sont morts.",
      "31" : "Un mec rentre dans un bar :\n- Je voudrais une chwirzderkilmaskichtmeurk à la menthe.\nEt le barman :\n- Un chwirzderkilmaskichtmeurk à la quoi ?",
      "32" : "Pourquoi les bananes sont-elles tordues ?\nPour rentrer dans les pelures.",
      "33" : "Si la tour de Pise penche vers la gauche, c'est qu'il va pleuvoir.\nSi elle penche vers la droite, c'est que vous arrivez par l'autre côté de la rue !",
      "34" : "Qu'est ce qui est bleu mais pas foncé ?\nBleu clair",
      "35" : "Qu'est-ce qui est petit, carré et jaune ?\nUn petit carré jaune!!!",
      "36" : "Le point commun entre un pédophile et un surdoué ?\nIls ont tout les deux sauté une classe de 6ème.",
      "37" : "Qu’est-ce qu’un grain de riz dans un lavabo…\nUn Somalien qui a vomi toute la nuit.",
      "38" : "Que peut on lire sur la porte des hopitaux somalien ?\nURGENCES : En cas d’absence, glisser le malade sous la porte.",
      "39" : "Qu’est ce qui court plus vite que le TGV ?\nUn Éthiopien avec un ticket de restaurant !",
      "40" : "C’est un nain qui rentre dans un bar : il a très très soif.\nLe nain s’approche du comptoir. Il est très haut ce comptoir. Il voit rien du tout de ce qu’il y a de l’autre côté…\nIl essaie quand meme :\n– JE VOUDRAIS UN FANTA !\n…\n(pas de réponse)\nIl essaie en sautant aussi haut qu’il peut.\n– J’VOUDRAIS UN FANTA !!\n– J’VOUDRAIS UN FANTA !!\n…\n(toujours pas de réponse)\nCette fois, le nain, il en a marre. Il fait le tour du comptoir, et de l’autre côté, il aperçoit un autre nain, qui saute en l’air en criant :\n– ORANGE OU CITRON ??!\n– ORANGE OU CITRON ??!",
      "41" : "Comment amuser une blonde toute une journée?\nIl faut lui donner une feuille avec la phrase \"retournez la feuille\" des deux cotés.",
      "42" : "C'est deux canards dans une marre et y en a un qui fait \"Coin Coin\" et l'autre dit \"Merde c'est ce que je voulais dire !\" ",
      "43" : "Qu'est-ce qui est blanc et qui va vite ?\nUn frigidaire de course. ",
      "44" : "Moi : Merci pour le verre de lait avant\nL'employé de la banque de sperme : Quel verre de lait?\nMoi : Celui qu'il y avait sur votre bureau\nL'employé : omg\nMoi : Quoi?\nL'employé : Vous avez bu mon verre de lait",
      "45" : "Comment est-ce qu'on appelle un boomerang qui ne revient pas?\nUn chat mort.",
      "46" : "Qu'est-ce que 9 personnes sur 10 adorent?\nLe viol en groupe.",
      "47" : "Pourquoi la petite fille tombe-t-elle de la balançoire?\nParce qu'elle n'a pas de bras.",
      "48" : "Qu'est ce qui est pire qu'un bébé dans une poubelle?\nUn bébé dans deux poubelles.",
      "49" : "Grâce à quoi peut-on enlever le chewing-gum dans les cheveux?\nLe cancer.",
      "50" : "Quelle est la différence entre la sodomie et les épinards?\nMême avec du beurre, les enfants n'aiment pas.",
      "51" : "Quelle partie du légume ne passe pas dans le mixer?\nLa chaise roulante",
      "52" : "Comment reconnaît-on une lettre envoyée par un lépreux?\nLa langue est collée au timbre.",
      "53" : "Quelle est la différence entre Michael Jackson et un sac plastique?\nL'un est en plastique, tout blanc et dangereux pour les enfants, et l'autre sert à transporter des choses.",
      "54" : "Quel est le point commun entre une Ferrari et une enfant de 5 ans?\nQuand tu rentres dedans, tu déchires tout.",
      "55" : "Que faire quand on trouve un épileptique en crise dans une baignoire?\nAjouter de la lessive et y jeter son linge sale.",
      "56" : "Comment sortir un bébé d'un mixer?\nAvec une paille.",
      "57" : "Quelle est la différence entre un camp d'entraînement terroriste et un orphelinat?\nJe sais pas, je conduis juste le drone.",
      "58" : "Peut-on prendre un bain quand on a la diarrhée?\nOui si vous en avez assez.",
      "59" : "Comment un parachutiste aveugle sait-il qu'il va toucher le sol?\nIl y a du mou dans la laisse du chien.",
      "60" : "Qu'est-ce qui est vert et qui pue?\nUn scout mort au fond d'un bois.",
      "61" : "Combien de tours fait un bébé dans un micro-onde avant d'exploser?\nJe sais pas, j'ai du mal à compter quand je me masturbe.",
      "62" : "Qu'est ce qui est vert et qui a des roulettes ?\nDu gazon, j'ai menti à propos des roulettes.",
      "63" : "Une blague courte: c'est des juifs.",
      "64" : "C'est quoi un pied par terre?\nUn lépreux qui a marché sur un chewing-gum.",
      "65" : "Pourquoi la NASA n'envoie pas de femmes sur la Lune?\nParce qu'il n'y a rien à nettoyer.",
      "66" : "Ta vie.",
      "67" : "Qu'est ce qu'on offre à un gamin manchot à Noël ?\nRien, il arriverait pas à ouvrir le paquet de toute façon.",
      "68" : "Qu'est ce que deux bras dans l'espace?\nUn lépreux qui a fait une holà.",
      "69" : "Qu'est-ce qui est bleu, et qui a la même odeur que de la peinture rouge?\nDe la peinture bleue.",
      "secret1" : [
        "C'est l'histoire d'un nain qui s'ennuie chez lui.",
        "Ce Nain, il est chez lui et il s'ennuie donc il se dit :\"Tiens ?!? Si j'allais me balader?\"\nMais bon comme c'est un Nain, il part pas les mains vides, il prend une pioche et un fût d'bière forcément sinon il meurt déshydraté au bout de 5min, hein', pas fou le Nain...\nAlors il commence sa balade mais faut savoir que les Nains sont très endurant donc il marche pendant une heure, deux heures, trois heures, quatre heures...\nEt là il s'arrête, pas parce qu'il est fatigué, j'vous ai dit que c'est endurant un Nain, mais parce qu'il à croisé un Nain-nain.\nAlors un Nain-nain qu'est ce que c'est vous me direz ? Bah, c'est comme un Nain mais en encore plus petit sachant que les Nain les plus grand font 1m20 et que la moyenne est autour des 1m les Nain-nains font grand maximum 70cm mais ont une taille moyenne de 50cm...\n'Fin bref je m'égare là...",
        "Donc pendant sa balade la Nain croise un Nain-nain et comme il en a marre de marcher tout seul (surtout qu'il marche plus très droit à force) il lui demande s'il veut bien venir avec lui.\nCe qui est en passant très rare pour un Nain qui est plutot associal étant donné ses prédispositions à la bagarre...\nDonc le Nain propose au Nain-nain de venir avec lui mais le Nain-nain est pas très motivé et croit que le Nain essaie de l'entourlouper... Normal venant d'un être qui porte plus d'importance a une pièce d'or qu'à la vie de ses confrères...\nc'est donc au bout d'un débat acharné de 30 secondes entre ces deux représentants d'espèce de petite taille que le Nain convainqui le Nain-nain de l'accompagner en échange d'un peu de bière Naine.\nC'est donc ainsi que le Nain et le Nain-nain commencent à se promener pendant une heure, deux heures, trois heures...\nEt au bout de trois quatres heures de marche, ils rencontrent... un Nain-nain-nain !!",
        "Alors, les Nain-nain-nains, c'est comme un Nain-nain mais en encore plus petit donc ils ont une taille moyenne de 30cm bien que certains d'entre eux atteignent les 45cm !\nSeulement voilà, les Nain-nain-nains ont la particularité d'être vraiment mais alors vraiment des boulets qui souâllent tout le monde en parlant tout le temps.\nC'est pourquoi le Nain et le Nain-nain ne s'arrêtent pas, mais malheureusement pour eux le Nain-nain-nain leur colle au cul parce qu'il a pas d'ami et que eux ils ont de la bière Naine...\nC'est donc après deux terribles heures de marche à supporter le Nain-nain-nain que le Nain et le Nain-nain rencontrent... (un Nain-nain-nain-nain vous croyez ? et ben nan!) Un Géant!\n",
        "Alors un Géant faut compter dans les 2-3 mètres et c'est des créatures très paisibles et pas très futés...\nC'est alors que le Nain et le Nain-nain ont l'idée de l'embarquer avec eux pour qu'il s'occupe du Nain-nain-nain et qu'il leur foute la paix...\n\"-Hey toi le grandmachin ça te dirais de nous accompagner ?\n- Hum ? Moi ?\n-Bah oui toi t'en vois d'autres des géant de 3m de haut ?\n-Bon ben d'accord\"",
        "C'est ainsi que le Nain, le Nain-nain, le Nain-Nain-Nain et le Géant continuèrent leur balade pendant une heure, deux heures, trois heures...\nQuand ils tombèrent sur un Géant-Géant (alors c'comme un Géant mais en encore plus grand et plus simplet)\n\"Hey toi le super grand on peut squatter ici pour la nuit?, lui dit le Nain.\n-Bah euh... chez moi ? bah euh c'est que... Oui...\"Donc le Nain, le Nain-nain, le Nain-Nain-Nain, le Géant et le Géant-géant se couchèrent dans la prairie qui sert de maison au Géant-Géant...\nIls furent réveillé lelendemain par un Géant-géant-géant qui come vous auriez compris est encore plus grand et plus con qu'un Géant-géant et qui, de ce fait, a trébuché contre le Géant allongé par terre où il ne l'avait pas vu...\n\"Woh ho ho !! Ou est ma bière ?!? dit le Nain en se réveillant en sursaut.\nHa merde mon joli rêve et ma bière a volonté !!\nC'était quoi se boucan ?\"",
        "\"-Euh j'crois... C'est... Moi... avoir fait BOUM parterre, répondu le Géant-géant-géant...\"\naprès des explication dont je vous passe les détails car ces derniers manquent cruellement d'intérêt, ils décidèrent de tous se remettre en route...\nLe Nain, le Nain-nain, le Nain-Nain-Nain, le Géant, le Géant-géant et le Géant-géant-géant qui avait décidé de venir avec eux marchèrent pendant une heure... deux heures... trois heures... Quatres heures...\nEt là ils arrivèrent au bord d'une falaise !\n\"Hey mais c'est ma maison là en bas !! s'exclama le Nain.\"\nIls cherchèrent donc une solution pour y descendre...\n",
        "Le Géant-géant-géant grâce a sa taille voulu tout simplement sauter car pour lui la hauteur n'étais pas très grande...\nMais au moment de sauter il glissa et à cause de cette glissade s'écrasa en bas et mouru.\nLe Géant-géant lui décida de descendre en desescaladant la paroie rocheuse et comme il s'était lié d'amitié avec le Nain-nain il le porta sur son dos pendant la descente...\nCependant une roche lui glissa des mains et ils s'écrassèrent tout deux en bas...\nLe Géant qui voulu voir se qui se passais s'approcha dubord de la falaise pour voir qu'est ce qui se passais...\nMais la falaise cèda et il creva en bas comme les autres...\nLe Nain plus prudent et connaissant les evirons décida de prendre un petit passage sauf qu'il n'étais pas très sécurisé et un cailloux l'écrasa...\nRestant seul le Nain-nain-nain était désespéré, il décida de sauter du haut de la falaise en disant à peu près cela :\n\"Snif! Tout mes amis sont morts, j'vais mourir avec eux\"",
        "Et il sauta...\nMais il n'est pas mort, pourquoi ???",
        "Parce qu'il porte des AirMax de la fameuse marque ChtChtPasDeMarque"],
      "secret2" : [
        "C'est deux amis aventuriers qui se perdent dans une jungle peuplée d'animaux plus dangereux les uns que les autres.\nIls marchèrent pendant des heures en quête d'une rivière pour s'abreuver. En chemin, ils tombèrent comme de par hasard sur une tribu d'indigènes qui les capturèrent aussitôt et les firent prisonniers.\nAprès une trentaine de minutes à attendre tranquillement dans la prison faite de bois solide, nos deux aventuriers furent heureux de rencontrer le chef de la tribu indigène, Mamarath Oriculcamesoperis, qui est le seul de la tribu à parler leur langue.\n",
        "Il leur donna alors un défi. Le défi est très simple : les deux prisonniers doivent ramener le plus de fruits possibles de la jungle en échange de leur liberté. Dans le cas où ils refusent, ils seront condamnés à être mangé par la tribu. Il y a cependant une règle pour le défi, ils ne font ramener qu'une seule espèce de fruit, par exemple, ils n'ont pas le droit de ramener une pomme et une poire.\nLes deux aventuriers, appelons-les, Boris et Maurice, ayant peur pour leur vie, acceptèrent sans hésitation le défi qui leur est proposé.\nAussitôt dit, aussitôt fait, les deux amis se dirigèrent vers la forêt, les jambes à leur coup en cherchant désespérément des fruits.\nL'idée de s'enfuir leur traversa l'esprit mais ils y renoncèrent quand ils virent  certains indigènes plu s rapide et plus habiles qu'eux, les surveiller de très près.\nAfin de ne pas se disputer sur les fruits qu'ils trouveront, les deux amis se séparèrent.",
        "Ce fut Maurice qui rencontra en premier l'objectif du défi, des oranges. Il en prit le plus possible sans prendre le temps de les compter et essaya de retrouver le chemin de retour vers le village.\nAprès 20 minutes à errer dans la jungle, son t-shirt enroulant ses oranges, il vit au loin des lumières qui lui indiquèrent la localisation du village.\n",
        "Enfin arrivé à destination, le chef Mamarath vint à sa rencontre lui annonçant qu'il était le premier à revenir, le félicita et lui annonça qu'après reunion du conseil, celui ci décida d'ajouter un seconde et ultime épreuve au défi. Cette épreuve consistait à se rentrer tous les fruits rapportés à l'intérieur de son anus, tout cela sans le moindre rire sinon le défi serait un échec.\nMaurice, s'apprêtant à se rebeller et s'enfuir, se ravisa et suivi les instructions.\nPendant la deuxième épreuve, Maurice n'avait d'autre occupation que de compter le nombre d'orange qu'il avait ramener tout en regrettant d'en avoir ramener autant.\nArrivé à la septième orange, Maurice parti dans un fou rire incontrôlable qui marqua son arrêt de mort. ",
        "Mamarath, surpris par le fou rire inattendu de Maurice lui demanda : \"Voyons, tu était proche du but, pourquoi t'es tu mis à rire subitement ?\"\nMaurice, tout en riant, lui repondit : \"C'est parce que je viens d'apercevoir Boris, en train de sortir de la jungle avec deux pastèques dans chaque bras.\"\n"
      ]
  }
